<?xml version="1.0" encoding="UTF-8"?>
<svg width="23px" height="30px" viewBox="0 0 23 30" version="1.1" xmlns="http://www.w3.org/2000/svg" xmlns:xlink="http://www.w3.org/1999/xlink" xmlns:sketch="http://www.bohemiancoding.com/sketch/ns">
    <!-- Generator: Sketch 3.4.2 (15855) - http://www.bohemiancoding.com/sketch -->
    <title>Shape</title>
    <desc>Created with Sketch.</desc>
    <defs></defs>
    <g id="Page-1" stroke="none" stroke-width="1" fill="none" fill-rule="evenodd" sketch:type="MSPage">
        <g id="Group" sketch:type="MSLayerGroup" transform="translate(-994.000000, -196.000000)" fill="#B1BFCD">
            <g transform="translate(979.000000, 180.000000)" id="Shape" sketch:type="MSShapeGroup">
                <path d="M34.712,26.823 C34.711,22.319 31.041,18.617 26.575,18.615 C21.996,18.614 18.317,22.267 18.317,26.815 C18.317,31.352 21.985,35.035 26.511,35.039 C31.03,35.044 34.713,31.354 34.712,26.823 M27.682,43.057 C27.682,43.631 27.686,44.179 27.68,44.727 C27.675,45.309 27.327,45.768 26.805,45.897 C26.045,46.082 25.364,45.546 25.349,44.743 C25.341,44.27 25.348,43.797 25.348,43.323 L25.348,43.057 L23.839,43.057 C23.133,43.057 22.619,42.587 22.601,41.925 C22.583,41.253 23.085,40.742 23.798,40.723 C24.232,40.712 24.667,40.721 25.102,40.72 L25.348,40.72 L25.348,40.266 C25.348,39.373 25.34,38.479 25.353,37.586 C25.356,37.362 25.291,37.303 25.068,37.268 C21.583,36.718 18.94,34.912 17.248,31.817 C15.07,27.831 15.718,22.97 18.806,19.649 C20.538,17.787 22.678,16.688 25.196,16.359 C30.605,15.653 35.687,19.284 36.818,24.645 C37.7516574,29.0448117 35.788488,33.5520267 31.931,35.865 C30.688356,36.614629 29.3033428,37.0975277 27.864,37.283 C27.752,37.298 27.68,37.319 27.68,37.456 C27.684,38.532 27.682,39.608 27.682,40.72 L27.935,40.72 C28.4,40.723 28.865,40.708 29.33,40.732 C29.936,40.762 30.381,41.218 30.427,41.818 C30.4689406,42.3985805 30.071922,42.9195066 29.501,43.033 C29.362,43.063 29.214,43.055 29.069,43.056 C28.614,43.058 28.159,43.056 27.682,43.056"></path>
            </g>
        </g>
    </g>
</svg>